[{
  "_id": {
    "$oid": "5eb88480cc79a40b40642be9"
  },
  "Kuchnia": [
    "Bar ze stekami",
    "Polska",
    "Europejska",
    "Winiarnia",
    "Środkowoeuropejska",
    "Międzynarodowa"
  ],
  "Name": "Merliniego",
  "Address": "Merliniego 5, Warszawa 02-511 Polska",
  "Rate": 4.5,
  "Url": "https://pl.tripadvisor.com/Restaurant_Review-g274856-d2407092-Reviews-Merliniego-Warsaw_Mazovia_Province_Central_Poland.html",
  "Voices": 114,
  "LatT": 0,
  "LongT": 0,
  "Location": {
    "type": "Point",
    "coordinates": [
      21.07433,
      52.20282
    ]
  }
},{
  "_id": {
    "$oid": "5eb88488cc79a40b40642bea"
  },
  "Kuchnia": [
    "Bar ze stekami",
    "Śródziemnomorska",
    "Europejska",
    "Azjatycka",
    "Owoce morza",
    "Grill"
  ],
  "Name": "Pera Restaurant Cafe & Bar",
  "Address": "Al. Krakowska 248, Warszawa 02-219 Polska",
  "Rate": 5,
  "Url": "https://pl.tripadvisor.com/Restaurant_Review-g274856-d15213978-Reviews-Pera_Restaurant_Cafe_Bar-Warsaw_Mazovia_Province_Central_Poland.html",
  "Voices": 333,
  "LatT": 0,
  "LongT": 0,
  "Location": {
    "type": "Point",
    "coordinates": [
      21.07433,
      52.20282
    ]
  }
},{
  "_id": {
    "$oid": "5eb88491cc79a40b40642beb"
  },
  "Kuchnia": [
    "Polska",
    "Europejska",
    "Grill/rożen",
    "Wschodnioeuropejska",
    "Środkowoeuropejska"
  ],
  "Name": "ŻEBRA i KOŚCI",
  "Address": "Poznańska 38, Warszawa 00-684 Polska",
  "Rate": 5,
  "Url": "https://pl.tripadvisor.com/Restaurant_Review-g274856-d16678291-Reviews-ZEBRA_I_KOSCI_Restauracja-Warsaw_Mazovia_Province_Central_Poland.html",
  "Voices": 590,
  "LatT": 0,
  "LongT": 0,
  "Location": {
    "type": "Point",
    "coordinates": [
      21.01019,
      52.22882
    ]
  }
},{
  "_id": {
    "$oid": "5eb88499cc79a40b40642bec"
  },
  "Kuchnia": [
    "Europejska",
    "Bar ze stekami",
    "Bar",
    "Grill/rożen",
    "Środkowoeuropejska"
  ],
  "Name": "Beef and Pepper Steak House",
  "Address": "ul. Nowogrodzka 47a, Warszawa 00-695 Polska",
  "Rate": 4.5,
  "Url": "https://pl.tripadvisor.com/Restaurant_Review-g274856-d8377670-Reviews-Beef_n_Pepper-Warsaw_Mazovia_Province_Central_Poland.html",
  "Voices": 1220,
  "LatT": 0,
  "LongT": 0,
  "Location": {
    "type": "Point",
    "coordinates": [
      21.07433,
      52.20282
    ]
  }
},{
  "_id": {
    "$oid": "5eb884a2cc79a40b40642bed"
  },
  "Kuchnia": [
    "Owoce morza",
    "Europejska",
    "Polska",
    "Bar",
    "Międzynarodowa",
    "Śródziemnomorska"
  ],
  "Name": "Selavi",
  "Address": "Plac Stanisława Małachowskiego 2, Warszawa 00-066 Polska",
  "Rate": 5,
  "Url": "https://pl.tripadvisor.com/Restaurant_Review-g274856-d18980800-Reviews-Selavi-Warsaw_Mazovia_Province_Central_Poland.html",
  "Voices": 140,
  "LatT": 0,
  "LongT": 0,
  "Location": {
    "type": "Point",
    "coordinates": [
      21.01288,
      52.23873
    ]
  }
},{
  "_id": {
    "$oid": "5eb884a9cc79a40b40642bee"
  },
  "Kuchnia": [
    "Bar",
    "Zdrowa",
    "Pub-restauracja"
  ],
  "Name": "Steam Bar",
  "Address": "Ulica Nowogrodzka 23 Srodmiescie, Warszawa 00-511 Polska",
  "Rate": 5,
  "Url": "https://pl.tripadvisor.com/Restaurant_Review-g274856-d11693299-Reviews-Steam_Bar-Warsaw_Mazovia_Province_Central_Poland.html",
  "Voices": 223,
  "LatT": 0,
  "LongT": 0,
  "Location": {
    "type": "Point",
    "coordinates": [
      21.01515,
      52.22894
    ]
  }
},{
  "_id": {
    "$oid": "5eb884b4cc79a40b40642bef"
  },
  "Kuchnia": [
    "Polska",
    "Współczesna"
  ],
  "Name": "AleGloria",
  "Address": "Plac Trzech Krzyży 3, Warszawa 00-535 Polska",
  "Rate": 4,
  "Url": "https://pl.tripadvisor.com/Restaurant_Review-g274856-d3228818-Reviews-AleGloria-Warsaw_Mazovia_Province_Central_Poland.html",
  "Voices": 449,
  "LatT": 0,
  "LongT": 0,
  "Location": {
    "type": "Point",
    "coordinates": [
      21.02273,
      52.2277
    ]
  }
},{
  "_id": {
    "$oid": "5eb884bbcc79a40b40642bf0"
  },
  "Kuchnia": [
    "Polska",
    "Europejska",
    "Współczesna",
    "Fusion",
    "Środkowoeuropejska"
  ],
  "Name": "N31restaurant&bar by Robert Sowa",
  "Address": "Nowogrodzka 31, Warszawa 00-511 Polska",
  "Rate": 4.5,
  "Url": "https://pl.tripadvisor.com/Restaurant_Review-g274856-d8754289-Reviews-N31restaurant_bar_by_Robert_Sowa-Warsaw_Mazovia_Province_Central_Poland.html",
  "Voices": 787,
  "LatT": 0,
  "LongT": 0,
  "Location": {
    "type": "Point",
    "coordinates": [
      21.07433,
      52.20282
    ]
  }
},{
  "_id": {
    "$oid": "5eb884c3cc79a40b40642bf1"
  },
  "Kuchnia": [
    "Polska",
    "Europejska",
    "Wschodnioeuropejska",
    "Środkowoeuropejska"
  ],
  "Name": "Soul Kitchen",
  "Address": "Nowogrodzka 18A, Warszawa 00-511 Polska",
  "Rate": 4.5,
  "Url": "https://pl.tripadvisor.com/Restaurant_Review-g274856-d3165144-Reviews-Soul_Kitchen-Warsaw_Mazovia_Province_Central_Poland.html",
  "Voices": 1468,
  "LatT": 0,
  "LongT": 0,
  "Location": {
    "type": "Point",
    "coordinates": [
      21.07433,
      52.20282
    ]
  }
},{
  "_id": {
    "$oid": "5eb884cccc79a40b40642bf2"
  },
  "Kuchnia": [
    "Polska",
    "Zdrowa"
  ],
  "Name": "Enoteka Warszawska",
  "Address": "Rynek Nowego Miasta 13/15, Warszawa 00-229 Polska",
  "Rate": 4.5,
  "Url": "https://pl.tripadvisor.com/Restaurant_Review-g274856-d1641187-Reviews-Enoteka_Warszawska-Warsaw_Mazovia_Province_Central_Poland.html",
  "Voices": 585,
  "LatT": 0,
  "LongT": 0,
  "Location": {
    "type": "Point",
    "coordinates": [
      21.00773,
      52.25293
    ]
  }
},{
  "_id": {
    "$oid": "5eb884d3cc79a40b40642bf3"
  },
  "Kuchnia": [
    "Polska",
    "Europejska",
    "Wschodnioeuropejska",
    "Środkowoeuropejska"
  ],
  "Name": "Restauracja Polska Różana",
  "Address": "Chocimska 7, Warszawa 00-791 Polska",
  "Rate": 4.5,
  "Url": "https://pl.tripadvisor.com/Restaurant_Review-g274856-d697149-Reviews-Polska_Rozana-Warsaw_Mazovia_Province_Central_Poland.html",
  "Voices": 2994,
  "LatT": 0,
  "LongT": 0,
  "Location": {
    "type": "Point",
    "coordinates": [
      21.02349,
      52.20845
    ]
  }
},{
  "_id": {
    "$oid": "5eb884dacc79a40b40642bf4"
  },
  "Kuchnia": [
    "Polska",
    "Europejska",
    "Zupy",
    "Wschodnioeuropejska",
    "Środkowoeuropejska"
  ],
  "Name": "Stolica",
  "Address": "Szeroki Dunaj 1/3 Stare Miasto, Warszawa 00-255 Polska",
  "Rate": 4.5,
  "Url": "https://pl.tripadvisor.com/Restaurant_Review-g274856-d11954933-Reviews-Stolica-Warsaw_Mazovia_Province_Central_Poland.html",
  "Voices": 1222,
  "LatT": 0,
  "LongT": 0,
  "Location": {
    "type": "Point",
    "coordinates": [
      21.0104,
      52.24949
    ]
  }
},{
  "_id": {
    "$oid": "5eb884e3cc79a40b40642bf5"
  },
  "Kuchnia": [
    "Japońska",
    "Azjatycka"
  ],
  "Name": "Menya Musashi",
  "Address": "Aleje Jerozolimskie 179 Poziom +2,  C.H. Blue City, Warszawa 02-222 Polska",
  "Rate": 3.5,
  "Url": "https://pl.tripadvisor.com/Restaurant_Review-g274856-d15278684-Reviews-Menya_Musashi-Warsaw_Mazovia_Province_Central_Poland.html",
  "Voices": 24,
  "LatT": 0,
  "LongT": 0,
  "Location": {
    "type": "Point",
    "coordinates": [
      20.95582,
      52.21268
    ]
  }
},{
  "_id": {
    "$oid": "5eb884ebcc79a40b40642bf6"
  },
  "Kuchnia": [
    "Japońska",
    "Sushi",
    "Azjatycka",
    "Fusion"
  ],
  "Name": "Sushi Maestro",
  "Address": "Sowińskiego 25, Warszawa 01-105 Polska",
  "Rate": 5,
  "Url": "https://pl.tripadvisor.com/Restaurant_Review-g274856-d12869083-Reviews-Sushi_Maestro-Warsaw_Mazovia_Province_Central_Poland.html",
  "Voices": 212,
  "LatT": 0,
  "LongT": 0,
  "Location": {
    "type": "Point",
    "coordinates": [
      21.07433,
      52.20282
    ]
  }
},{
  "_id": {
    "$oid": "5eb884f4cc79a40b40642bf7"
  },
  "Kuchnia": [
    "Francuska",
    "Międzynarodowa",
    "Europejska",
    "Środkowoeuropejska"
  ],
  "Name": "Bez Tytułu",
  "Address": "Poznańska 16, Warszawa 00-680 Polska",
  "Rate": 4.5,
  "Url": "https://pl.tripadvisor.com/Restaurant_Review-g274856-d10818691-Reviews-Bez_Tytulu-Warsaw_Mazovia_Province_Central_Poland.html",
  "Voices": 136,
  "LatT": 0,
  "LongT": 0,
  "Location": {
    "type": "Point",
    "coordinates": [
      21.01209,
      52.22521
    ]
  }
},{
  "_id": {
    "$oid": "5eb884facc79a40b40642bf8"
  },
  "Kuchnia": [
    "Polska",
    "Środkowoeuropejska",
    "Bary obiadowe"
  ],
  "Name": "Stara Kamienica",
  "Address": "ul. Widok 8, Warszawa 00-023 Polska",
  "Rate": 4.5,
  "Url": "https://pl.tripadvisor.com/Restaurant_Review-g274856-d5930832-Reviews-Stara_Kamienica-Warsaw_Mazovia_Province_Central_Poland.html",
  "Voices": 1210,
  "LatT": 0,
  "LongT": 0,
  "Location": {
    "type": "Point",
    "coordinates": [
      21.07476,
      52.20542
    ]
  }
},{
  "_id": {
    "$oid": "5eb88502cc79a40b40642bf9"
  },
  "Kuchnia": [
    "Azjatycka",
    "Indonezyjska",
    "Zdrowa"
  ],
  "Name": "Sambal Restauracja Indonezyjska",
  "Address": "Krzywe Koło 1/3, Warszawa 00-270 Polska",
  "Rate": 4.5,
  "Url": "https://pl.tripadvisor.com/Restaurant_Review-g274856-d13164709-Reviews-Sambal_Restauracja_indonezyjska-Warsaw_Mazovia_Province_Central_Poland.html",
  "Voices": 179,
  "LatT": 0,
  "LongT": 0,
  "Location": {
    "type": "Point",
    "coordinates": [
      21.01163,
      52.25055
    ]
  }
},{
  "_id": {
    "$oid": "5eb88509cc79a40b40642bfa"
  },
  "Kuchnia": [
    "Japońska",
    "Sushi",
    "Azjatycka"
  ],
  "Name": "Youmiko Vegan Sushi",
  "Address": "Hoża 62, Warszawa 00-682 Polska",
  "Rate": 4.5,
  "Url": "https://pl.tripadvisor.com/Restaurant_Review-g274856-d9799310-Reviews-Youmiko_Vegan_Sushi-Warsaw_Mazovia_Province_Central_Poland.html",
  "Voices": 362,
  "LatT": 0,
  "LongT": 0,
  "Location": {
    "type": "Point",
    "coordinates": [
      21.07433,
      52.20282
    ]
  }
},{
  "_id": {
    "$oid": "5eb88512cc79a40b40642bfb"
  },
  "Kuchnia": [],
  "Name": "Niewinni Czarodzieje 2.0",
  "Address": "Zajęcza 2B Elektrowania Powiśle, Warszawa 00-351 Polska",
  "Rate": 3.5,
  "Url": "https://pl.tripadvisor.com/Restaurant_Review-g274856-d17755034-Reviews-Niewinni_Czarodzieje_2_0-Warsaw_Mazovia_Province_Central_Poland.html",
  "Voices": 42,
  "LatT": 0,
  "LongT": 0,
  "Location": {
    "type": "Point",
    "coordinates": [
      21.07433,
      52.20282
    ]
  }
},{
  "_id": {
    "$oid": "5eb8851ccc79a40b40642bfc"
  },
  "Kuchnia": [
    "Polska",
    "Europejska",
    "Wschodnioeuropejska",
    "Środkowoeuropejska"
  ],
  "Name": "Restauracja Stary Dom",
  "Address": "Ul. Puławska 104 / 106, Warszawa 02-620 Polska",
  "Rate": 4.5,
  "Url": "https://pl.tripadvisor.com/Restaurant_Review-g274856-d2299324-Reviews-Stary_Dom_Restaurant-Warsaw_Mazovia_Province_Central_Poland.html",
  "Voices": 2040,
  "LatT": 0,
  "LongT": 0,
  "Location": {
    "type": "Point",
    "coordinates": [
      21.02502,
      52.19382
    ]
  }
},{
  "_id": {
    "$oid": "5eb88526cc79a40b40642bfd"
  },
  "Kuchnia": [
    "Azjatycka",
    "Tajska",
    "Indonezyjska"
  ],
  "Name": "InAzia",
  "Address": "Bolesława Prusa 2, Warszawa 00-493 Polska",
  "Rate": 4.5,
  "Url": "https://pl.tripadvisor.com/Restaurant_Review-g274856-d4153623-Reviews-InAzia-Warsaw_Mazovia_Province_Central_Poland.html",
  "Voices": 549,
  "LatT": 0,
  "LongT": 0,
  "Location": {
    "type": "Point",
    "coordinates": [
      21.02497,
      52.22809
    ]
  }
},{
  "_id": {
    "$oid": "5eb88530cc79a40b40642bfe"
  },
  "Kuchnia": [
    "Polska",
    "Europejska",
    "Środkowoeuropejska",
    "Międzynarodowa"
  ],
  "Name": "Amber Room",
  "Address": "Aleje Ujazdowskie 13 Sobanski Palace, Warszawa 00-567 Polska",
  "Rate": 4.5,
  "Url": "https://pl.tripadvisor.com/Restaurant_Review-g274856-d2018224-Reviews-Amber_Room-Warsaw_Mazovia_Province_Central_Poland.html",
  "Voices": 559,
  "LatT": 0,
  "LongT": 0,
  "Location": {
    "type": "Point",
    "coordinates": [
      21.02389,
      52.22162
    ]
  }
},{
  "_id": {
    "$oid": "5eb88538cc79a40b40642bff"
  },
  "Kuchnia": [
    "Europejska",
    "Środkowoeuropejska",
    "Międzynarodowa"
  ],
  "Name": "Nolita Restaurant",
  "Address": "ul. Wilcza 46, Warszawa 00-679 Polska",
  "Rate": 4.5,
  "Url": "https://pl.tripadvisor.com/Restaurant_Review-g274856-d3646738-Reviews-Nolita_Restaurant-Warsaw_Mazovia_Province_Central_Poland.html",
  "Voices": 399,
  "LatT": 0,
  "LongT": 0,
  "Location": {
    "type": "Point",
    "coordinates": [
      21.07433,
      52.20282
    ]
  }
},{
  "_id": {
    "$oid": "5eb88545cc79a40b40642c00"
  },
  "Kuchnia": [
    "Polska"
  ],
  "Name": "Prodiż warszawski",
  "Address": "Poznańska 16 Poznańska 16, Warszawa 00-680 Polska",
  "Rate": 4.5,
  "Url": "https://pl.tripadvisor.com/Restaurant_Review-g274856-d11920620-Reviews-Prodiz_Warszawski-Warsaw_Mazovia_Province_Central_Poland.html",
  "Voices": 726,
  "LatT": 0,
  "LongT": 0,
  "Location": {
    "type": "Point",
    "coordinates": [
      21.01209,
      52.22521
    ]
  }
},{
  "_id": {
    "$oid": "5eb8854dcc79a40b40642c01"
  },
  "Kuchnia": [
    "Polska",
    "Bar",
    "Pub",
    "Wschodnioeuropejska",
    "Bar piwny",
    "Europejska",
    "Grill",
    "Zdrowa"
  ],
  "Name": "Kiełba w Gębie",
  "Address": "Koszykowa 63 Hala Koszyki, Warszawa 00-667 Polska",
  "Rate": 4,
  "Url": "https://pl.tripadvisor.com/Restaurant_Review-g274856-d11907265-Reviews-Kielba_w_Gebie-Warsaw_Mazovia_Province_Central_Poland.html",
  "Voices": 33,
  "LatT": 0,
  "LongT": 0,
  "Location": {
    "type": "Point",
    "coordinates": [
      21.01098,
      52.22251
    ]
  }
},{
  "_id": {
    "$oid": "5eb88556cc79a40b40642c02"
  },
  "Kuchnia": [
    "Izraelska",
    "Środkowowschodnia",
    "Arabska"
  ],
  "Name": "Falla Warszawa",
  "Address": "Oboźna 9, Warszawa 00-332 Polska",
  "Rate": 5,
  "Url": "https://pl.tripadvisor.com/Restaurant_Review-g274856-d14032526-Reviews-Falla_Warszawa-Warsaw_Mazovia_Province_Central_Poland.html",
  "Voices": 108,
  "LatT": 0,
  "LongT": 0,
  "Location": {
    "type": "Point",
    "coordinates": [
      21.07433,
      52.20282
    ]
  }
},{
  "_id": {
    "$oid": "5eb8855ecc79a40b40642c03"
  },
  "Kuchnia": [
    "Francuska",
    "Europejska",
    "Środkowoeuropejska"
  ],
  "Name": "Bistro de Paris",
  "Address": "Pl. Pilsudskiego 9, Warszawa Polska",
  "Rate": 4.5,
  "Url": "https://pl.tripadvisor.com/Restaurant_Review-g274856-d942740-Reviews-Bistro_de_Paris-Warsaw_Mazovia_Province_Central_Poland.html",
  "Voices": 421,
  "LatT": 0,
  "LongT": 0,
  "Location": {
    "type": "Point",
    "coordinates": [
      21.07699,
      52.20748
    ]
  }
},{
  "_id": {
    "$oid": "5eb88566cc79a40b40642c04"
  },
  "Kuchnia": [
    "Polska",
    "Wschodnioeuropejska"
  ],
  "Name": "Pyzy Flaki Gorące",
  "Address": "Brzeska 29/31, Warszawa 03-739 Polska",
  "Rate": 4.5,
  "Url": "https://pl.tripadvisor.com/Restaurant_Review-g274856-d10790790-Reviews-Pyzy_Flaki_Gorace-Warsaw_Mazovia_Province_Central_Poland.html",
  "Voices": 179,
  "LatT": 0,
  "LongT": 0,
  "Location": {
    "type": "Point",
    "coordinates": [
      21.04103,
      52.25301
    ]
  }
},{
  "_id": {
    "$oid": "5eb8856fcc79a40b40642c05"
  },
  "Kuchnia": [
    "Polska",
    "Europejska",
    "Zdrowa",
    "Wschodnioeuropejska",
    "Środkowoeuropejska"
  ],
  "Name": "Romantyczna Restauracja, Rynek Starego Miasta 18",
  "Address": "Rynek Starego Miasta 18, Warszawa 00-272 Polska",
  "Rate": 4.5,
  "Url": "https://pl.tripadvisor.com/Restaurant_Review-g274856-d12342756-Reviews-Romantyczna_Restauracja_Rynek_Starego_Miasta_18-Warsaw_Mazovia_Province_Central_.html",
  "Voices": 369,
  "LatT": 0,
  "LongT": 0,
  "Location": {
    "type": "Point",
    "coordinates": [
      21.01254,
      52.25019
    ]
  }
},{
  "_id": {
    "$oid": "5eb88577cc79a40b40642c06"
  },
  "Kuchnia": [
    "Polska",
    "Europejska",
    "Bar",
    "Środkowoeuropejska"
  ],
  "Name": "Setka",
  "Address": "Świętokrzyska 14, Warszawa 00-001 Polska",
  "Rate": 4.5,
  "Url": "https://pl.tripadvisor.com/Restaurant_Review-g274856-d13356144-Reviews-SETKA_Warszawa-Warsaw_Mazovia_Province_Central_Poland.html",
  "Voices": 234,
  "LatT": 0,
  "LongT": 0,
  "Location": {
    "type": "Point",
    "coordinates": [
      21.01416,
      52.23662
    ]
  }
},{
  "_id": {
    "$oid": "5eb8857fcc79a40b40642c07"
  },
  "Kuchnia": [
    "Polska"
  ],
  "Name": "Restauracja Pod Gigantami ",
  "Address": "ul. Aleje Ujazdowskie 24, Warszawa 00-478 Polska",
  "Rate": 4.5,
  "Url": "https://pl.tripadvisor.com/Restaurant_Review-g274856-d1646965-Reviews-Pod_Gigantami_Exclusive_Restaurant-Warsaw_Mazovia_Province_Central_Poland.html",
  "Voices": 191,
  "LatT": 0,
  "LongT": 0,
  "Location": {
    "type": "Point",
    "coordinates": [
      21.02369,
      52.22698
    ]
  }
},{
  "_id": {
    "$oid": "5eb8858acc79a40b40642c08"
  },
  "Kuchnia": [
    "Polska",
    "Europejska",
    "Wschodnioeuropejska",
    "Środkowoeuropejska"
  ],
  "Name": "Delicja Polska",
  "Address": "Krakowskie Przedmieście 64, Warszawa 00-322 Polska",
  "Rate": 4.5,
  "Url": "https://pl.tripadvisor.com/Restaurant_Review-g274856-d1749062-Reviews-Delicja_Polska-Warsaw_Mazovia_Province_Central_Poland.html",
  "Voices": 696,
  "LatT": 0,
  "LongT": 0,
  "Location": {
    "type": "Point",
    "coordinates": [
      21.01448,
      52.24545
    ]
  }
},{
  "_id": {
    "$oid": "5eb88593cc79a40b40642c09"
  },
  "Kuchnia": [
    "Polska",
    "Europejska",
    "Wschodnioeuropejska",
    "Środkowoeuropejska"
  ],
  "Name": "Restauracja Przy Zamku",
  "Address": "Plac Zamkowy 15/19, Warszawa 00-267 Polska",
  "Rate": 4.5,
  "Url": "https://pl.tripadvisor.com/Restaurant_Review-g274856-d697151-Reviews-Przy_Zamku-Warsaw_Mazovia_Province_Central_Poland.html",
  "Voices": 1268,
  "LatT": 0,
  "LongT": 0,
  "Location": {
    "type": "Point",
    "coordinates": [
      21.01348,
      52.24813
    ]
  }
},{
  "_id": {
    "$oid": "5eb8859ecc79a40b40642c0a"
  },
  "Kuchnia": [
    "Polska",
    "Europejska",
    "Współczesna",
    "Zdrowa"
  ],
  "Name": "FRETA 33",
  "Address": "Ul. Freta 33/35 Rynek Nowego Miasta, Warszawa 00-227 Polska",
  "Rate": 4.5,
  "Url": "https://pl.tripadvisor.com/Restaurant_Review-g274856-d2219801-Reviews-Restauracja_Freta_33-Warsaw_Mazovia_Province_Central_Poland.html",
  "Voices": 175,
  "LatT": 0,
  "LongT": 0,
  "Location": {
    "type": "Point",
    "coordinates": [
      21.00755,
      52.25299
    ]
  }
},{
  "_id": {
    "$oid": "5eb885a8cc79a40b40642c0b"
  },
  "Kuchnia": [
    "Polska"
  ],
  "Name": "Kamienne Schodki",
  "Address": "Rynek Starego Miasta 26, Warszawa 00-272 Polska",
  "Rate": 4.5,
  "Url": "https://pl.tripadvisor.com/Restaurant_Review-g274856-d1045660-Reviews-Kamienne_Schodki-Warsaw_Mazovia_Province_Central_Poland.html",
  "Voices": 541,
  "LatT": 0,
  "LongT": 0,
  "Location": {
    "type": "Point",
    "coordinates": [
      21.01223,
      52.25041
    ]
  }
},{
  "_id": {
    "$oid": "5eb885b2cc79a40b40642c0c"
  },
  "Kuchnia": [
    "Polska"
  ],
  "Name": "Latem Bar & Restauracja",
  "Address": "Rynek Starego Miasta 10, Warszawa 00-272 Polska",
  "Rate": 4.5,
  "Url": "https://pl.tripadvisor.com/Restaurant_Review-g274856-d8797372-Reviews-Latem_Bar_Restaurant-Warsaw_Mazovia_Province_Central_Poland.html",
  "Voices": 242,
  "LatT": 0,
  "LongT": 0,
  "Location": {
    "type": "Point",
    "coordinates": [
      21.01281,
      52.24999
    ]
  }
},{
  "_id": {
    "$oid": "5eb885bdcc79a40b40642c0d"
  },
  "Kuchnia": [
    "Japońska",
    "Sushi",
    "Azjatycka"
  ],
  "Name": "OTO!SUSHI",
  "Address": "Nowy Świat 46 Zalecany dojazd od ul. Gałczyńskiego, Warszawa 00-363 Polska",
  "Rate": 4.5,
  "Url": "https://pl.tripadvisor.com/Restaurant_Review-g274856-d1510631-Reviews-OTO_SUSHI-Warsaw_Mazovia_Province_Central_Poland.html",
  "Voices": 245,
  "LatT": 0,
  "LongT": 0,
  "Location": {
    "type": "Point",
    "coordinates": [
      21.01903,
      52.2347
    ]
  }
},{
  "_id": {
    "$oid": "5eb885c7cc79a40b40642c0e"
  },
  "Kuchnia": [
    "Japońska",
    "Sushi",
    "Azjatycka",
    "Tajska"
  ],
  "Name": "Tao Thai & Sushi",
  "Address": "ul.Józefińska 4, Kraków 30-529 Polska",
  "Rate": 4,
  "Url": "https://pl.tripadvisor.com/Restaurant_Review-g274772-d6834907-Reviews-Tao_Thai_Sushi-Krakow_Lesser_Poland_Province_Southern_Poland.html",
  "Voices": 214,
  "LatT": 0,
  "LongT": 0,
  "Location": {
    "type": "Point",
    "coordinates": [
      19.94902,
      50.04583
    ]
  }
},{
  "_id": {
    "$oid": "5eb885cfcc79a40b40642c0f"
  },
  "Kuchnia": [
    "Bar ze stekami",
    "Europejska",
    "Grill"
  ],
  "Name": "Salta Resto",
  "Address": "ul. Miodowa 19, Kraków 31-055 Polska",
  "Rate": 5,
  "Url": "https://pl.tripadvisor.com/Restaurant_Review-g274772-d17566525-Reviews-Salta_Resto-Krakow_Lesser_Poland_Province_Southern_Poland.html",
  "Voices": 287,
  "LatT": 0,
  "LongT": 0,
  "Location": {
    "type": "Point",
    "coordinates": [
      19.94422,
      50.05257
    ]
  }
},{
  "_id": {
    "$oid": "5eb885d7cc79a40b40642c10"
  },
  "Kuchnia": [
    "Międzynarodowa",
    "Fusion",
    "Środkowoeuropejska"
  ],
  "Name": "Garden Restauracja",
  "Address": "Krowoderska 71, Kraków 31-158 Polska",
  "Rate": 5,
  "Url": "https://pl.tripadvisor.com/Restaurant_Review-g274772-d10371753-Reviews-Garden_Restaurant-Krakow_Lesser_Poland_Province_Southern_Poland.html",
  "Voices": 589,
  "LatT": 0,
  "LongT": 0,
  "Location": {
    "type": "Point",
    "coordinates": [
      19.93263,
      50.07203
    ]
  }
},{
  "_id": {
    "$oid": "5eb885e0cc79a40b40642c11"
  },
  "Kuchnia": [
    "Polska"
  ],
  "Name": "Restauracja Art",
  "Address": "ul.Kanonicza 15, Kraków 31-002 Polska",
  "Rate": 4.5,
  "Url": "https://pl.tripadvisor.com/Restaurant_Review-g274772-d13831563-Reviews-Art_Restaurant-Krakow_Lesser_Poland_Province_Southern_Poland.html",
  "Voices": 836,
  "LatT": 0,
  "LongT": 0,
  "Location": {
    "type": "Point",
    "coordinates": [
      19.93739,
      50.05642
    ]
  }
},{
  "_id": {
    "$oid": "5eb885eacc79a40b40642c12"
  },
  "Kuchnia": [
    "Europejska",
    "Polska"
  ],
  "Name": "Paul's Place Restaurant & Bar",
  "Address": "ul. Gołębia 3 Stare Miasto, Kraków 31-007 Polska",
  "Rate": 4.5,
  "Url": "https://pl.tripadvisor.com/Restaurant_Review-g274772-d14214188-Reviews-Paul_s_Place_Restaurant_Bar-Krakow_Lesser_Poland_Province_Southern_Poland.html",
  "Voices": 333,
  "LatT": 0,
  "LongT": 0,
  "Location": {
    "type": "Point",
    "coordinates": [
      19.93545,
      50.06042
    ]
  }
},{
  "_id": {
    "$oid": "5eb885f3cc79a40b40642c13"
  },
  "Kuchnia": [
    "Współczesna",
    "Fusion",
    "Zdrowa",
    "Polska",
    "Europejska"
  ],
  "Name": "Zielona Kuchnia",
  "Address": "Ambrożego Grabowskiego 8/9 Malopolskie, Kraków 31-126 Polska",
  "Rate": 4.5,
  "Url": "https://pl.tripadvisor.com/Restaurant_Review-g274772-d1965370-Reviews-Zielona_Kuchnia-Krakow_Lesser_Poland_Province_Southern_Poland.html",
  "Voices": 1493,
  "LatT": 0,
  "LongT": 0,
  "Location": {
    "type": "Point",
    "coordinates": [
      19.92708,
      50.06683
    ]
  }
},{
  "_id": {
    "$oid": "5eb885fccc79a40b40642c14"
  },
  "Kuchnia": [
    "Europejska",
    "Środkowoeuropejska"
  ],
  "Name": "Bottiglieria 1881",
  "Address": "ul. Bochenska 5 LU 1, Kraków 31-061 Polska",
  "Rate": 4.5,
  "Url": "https://pl.tripadvisor.com/Restaurant_Review-g274772-d6027764-Reviews-Bottiglieria_1881-Krakow_Lesser_Poland_Province_Southern_Poland.html",
  "Voices": 265,
  "LatT": 0,
  "LongT": 0,
  "Location": {
    "type": "Point",
    "coordinates": [
      19.94515,
      50.04849
    ]
  }
},{
  "_id": {
    "$oid": "5eb8860ccc79a40b40642c15"
  },
  "Kuchnia": [
    "Japońska",
    "Sushi",
    "Owoce morza",
    "Azjatycka"
  ],
  "Name": "Sakana Sushi & Sticks",
  "Address": "Al. 3 Maja 9 Park Club, Kraków 30-062 Polska",
  "Rate": 5,
  "Url": "https://pl.tripadvisor.com/Restaurant_Review-g274772-d15688323-Reviews-Sakana_Sushi_Sticks-Krakow_Lesser_Poland_Province_Southern_Poland.html",
  "Voices": 191,
  "LatT": 0,
  "LongT": 0,
  "Location": {
    "type": "Point",
    "coordinates": [
      19.92021,
      50.06019
    ]
  }
},{
  "_id": {
    "$oid": "5eb8861bcc79a40b40642c16"
  },
  "Kuchnia": [
    "Polska",
    "Europejska",
    "Wschodnioeuropejska",
    "Środkowoeuropejska"
  ],
  "Name": "Restauracja Pod Złotym Karpiem",
  "Address": "Rynek Główny 10 Pasaż Bielaka, Kraków 31-042 Polska",
  "Rate": 4.5,
  "Url": "https://pl.tripadvisor.com/Restaurant_Review-g274772-d14113248-Reviews-Restauracja_Pod_Zlotym_Karpiem-Krakow_Lesser_Poland_Province_Southern_Poland.html",
  "Voices": 421,
  "LatT": 0,
  "LongT": 0,
  "Location": {
    "type": "Point",
    "coordinates": [
      19.93806,
      50.06068
    ]
  }
},{
  "_id": {
    "$oid": "5eb88624cc79a40b40642c17"
  },
  "Kuchnia": [
    "Polska"
  ],
  "Name": "Amarylis",
  "Address": "ul. Józefa Dietla 60, Kraków 31-039 Polska",
  "Rate": 4.5,
  "Url": "https://pl.tripadvisor.com/Restaurant_Review-g274772-d2419699-Reviews-Amarylis-Krakow_Lesser_Poland_Province_Southern_Poland.html",
  "Voices": 794,
  "LatT": 0,
  "LongT": 0,
  "Location": {
    "type": "Point",
    "coordinates": [
      19.94328,
      50.05429
    ]
  }
},{
  "_id": {
    "$oid": "5eb8862ccc79a40b40642c18"
  },
  "Kuchnia": [
    "Włoska",
    "Owoce morza",
    "Śródziemnomorska",
    "Zdrowa",
    "Winiarnia",
    "Europejska",
    "Sardyńska",
    "Południowowłoska"
  ],
  "Name": "Ristorante Sant'Antioco",
  "Address": "Mikolajska 30, Kraków 31-027 Polska",
  "Rate": 4.5,
  "Url": "https://pl.tripadvisor.com/Restaurant_Review-g274772-d13277549-Reviews-Ristorante_Sant_Antioco-Krakow_Lesser_Poland_Province_Southern_Poland.html",
  "Voices": 1307,
  "LatT": 0,
  "LongT": 0,
  "Location": {
    "type": "Point",
    "coordinates": [
      19.9429,
      50.06148
    ]
  }
},{
  "_id": {
    "$oid": "5eb88634cc79a40b40642c19"
  },
  "Kuchnia": [
    "Międzynarodowa",
    "Europejska",
    "Zdrowa",
    "Środkowoeuropejska"
  ],
  "Name": "Bistro Bene by Tomasz Leśniak",
  "Address": "Świętego Krzyża 17, Kraków 31-023 Polska",
  "Rate": 4.5,
  "Url": "https://pl.tripadvisor.com/Restaurant_Review-g274772-d12327518-Reviews-Bistro_Bene_by_Tomasz_Lesniak-Krakow_Lesser_Poland_Province_Southern_Poland.html",
  "Voices": 865,
  "LatT": 0,
  "LongT": 0,
  "Location": {
    "type": "Point",
    "coordinates": [
      19.94269,
      50.06235
    ]
  }
},{
  "_id": {
    "$oid": "5eb8863fcc79a40b40642c1a"
  },
  "Kuchnia": [
    "Owoce morza",
    "Europejska",
    "Winiarnia",
    "Bar",
    "Międzynarodowa",
    "Pub"
  ],
  "Name": "Współwinni",
  "Address": "Armii Krajowej 19, Kraków 30-150 Polska",
  "Rate": 4.5,
  "Url": "https://pl.tripadvisor.com/Restaurant_Review-g274772-d19822755-Reviews-Wspolwinni-Krakow_Lesser_Poland_Province_Southern_Poland.html",
  "Voices": 11,
  "LatT": 0,
  "LongT": 0,
  "Location": {
    "type": "Point",
    "coordinates": [
      19.89459,
      50.07071
    ]
  }
},{
  "_id": {
    "$oid": "5eb8864dcc79a40b40642c1b"
  },
  "Kuchnia": [
    "Europejska",
    "Polska",
    "Wschodnioeuropejska",
    "Środkowoeuropejska"
  ],
  "Name": "Old Town Restaurant Wine & Bar",
  "Address": "Ulica Sw. Sebastiana 25 Kazimierz, Kraków 31-050 Polska",
  "Rate": 4.5,
  "Url": "https://pl.tripadvisor.com/Restaurant_Review-g274772-d8412137-Reviews-Old_Town_Restaurant_Wine_Bar-Krakow_Lesser_Poland_Province_Southern_Poland.html",
  "Voices": 1960,
  "LatT": 0,
  "LongT": 0,
  "Location": {
    "type": "Point",
    "coordinates": [
      19.94462,
      50.05484
    ]
  }
},{
  "_id": {
    "$oid": "5eb88656cc79a40b40642c1c"
  },
  "Kuchnia": [
    "Polska"
  ],
  "Name": "Restauracja Starka",
  "Address": "ul. Józefa 14, Kraków 31-056 Polska",
  "Rate": 4.5,
  "Url": "https://pl.tripadvisor.com/Restaurant_Review-g274772-d1749958-Reviews-Restauracja_Starka-Krakow_Lesser_Poland_Province_Southern_Poland.html",
  "Voices": 6572,
  "LatT": 0,
  "LongT": 0,
  "Location": {
    "type": "Point",
    "coordinates": [
      19.94436,
      50.05064
    ]
  }
},{
  "_id": {
    "$oid": "5eb8865fcc79a40b40642c1d"
  },
  "Kuchnia": [
    "Indyjska",
    "Azjatycka",
    "Nepalska"
  ],
  "Name": "The Himalayan Treasure, Flavor of Asia",
  "Address": "Zwierzyniecka 30 Poziom -1, Kraków 31-105 Polska",
  "Rate": 4.5,
  "Url": "https://pl.tripadvisor.com/Restaurant_Review-g274772-d15203051-Reviews-The_Himalayan_Treasure_Flavor_of_Asia-Krakow_Lesser_Poland_Province_Southern_Pol.html",
  "Voices": 248,
  "LatT": 0,
  "LongT": 0,
  "Location": {
    "type": "Point",
    "coordinates": [
      19.92975,
      50.05674
    ]
  }
},{
  "_id": {
    "$oid": "5eb8866bcc79a40b40642c1e"
  },
  "Kuchnia": [
    "Polska",
    "Europejska",
    "Wschodnioeuropejska",
    "Środkowoeuropejska"
  ],
  "Name": "NAKRYTO kuchnia polska",
  "Address": "ul. Beera Meiselsa 14 Skwer przy końcu ulicy Meiselsa, Kraków 31-058 Polska",
  "Rate": 4.5,
  "Url": "https://pl.tripadvisor.com/Restaurant_Review-g274772-d14072070-Reviews-Nakryto_Kuchnia_Polska-Krakow_Lesser_Poland_Province_Southern_Poland.html",
  "Voices": 370,
  "LatT": 0,
  "LongT": 0,
  "Location": {
    "type": "Point",
    "coordinates": [
      19.943,
      50.05118
    ]
  }
},{
  "_id": {
    "$oid": "5eb88674cc79a40b40642c1f"
  },
  "Kuchnia": [
    "Polska",
    "Europejska",
    "Wschodnioeuropejska",
    "Środkowoeuropejska"
  ],
  "Name": "Kuchnia Polska Gąska",
  "Address": "Limanowskiego 1, Kraków 30-551 Polska",
  "Rate": 4.5,
  "Url": "https://pl.tripadvisor.com/Restaurant_Review-g274772-d11909192-Reviews-Kuchnia_Polska_Gaska-Krakow_Lesser_Poland_Province_Southern_Poland.html",
  "Voices": 724,
  "LatT": 0,
  "LongT": 0,
  "Location": {
    "type": "Point",
    "coordinates": [
      19.95485,
      50.04513
    ]
  }
},{
  "_id": {
    "$oid": "5eb8867dcc79a40b40642c20"
  },
  "Kuchnia": [
    "Włoska",
    "Polska",
    "Śródziemnomorska",
    "Europejska",
    "Środkowoeuropejska"
  ],
  "Name": "Pestka Restobar",
  "Address": "ul.Długa 51, Kraków 31-147 Polska",
  "Rate": 4.5,
  "Url": "https://pl.tripadvisor.com/Restaurant_Review-g274772-d14164025-Reviews-Pestka_Restobar-Krakow_Lesser_Poland_Province_Southern_Poland.html",
  "Voices": 41,
  "LatT": 0,
  "LongT": 0,
  "Location": {
    "type": "Point",
    "coordinates": [
      19.93659,
      50.0708
    ]
  }
},{
  "_id": {
    "$oid": "5eb88685cc79a40b40642c21"
  },
  "Kuchnia": [
    "Śródziemnomorska",
    "Europejska",
    "Środkowoeuropejska"
  ],
  "Name": "Restauracja Padre",
  "Address": "ul. Wiślna 11, Kraków 31-007 Polska",
  "Rate": 4.5,
  "Url": "https://pl.tripadvisor.com/Restaurant_Review-g274772-d2369590-Reviews-Restauracja_Padre-Krakow_Lesser_Poland_Province_Southern_Poland.html",
  "Voices": 1156,
  "LatT": 0,
  "LongT": 0,
  "Location": {
    "type": "Point",
    "coordinates": [
      19.93424,
      50.06017
    ]
  }
},{
  "_id": {
    "$oid": "5eb8868ecc79a40b40642c22"
  },
  "Kuchnia": [
    "Francuska",
    "Europejska",
    "Środkowoeuropejska"
  ],
  "Name": "Cyrano de Bergerac",
  "Address": "ul. Sławkowska 26, Kraków 31-014 Polska",
  "Rate": 4.5,
  "Url": "https://pl.tripadvisor.com/Restaurant_Review-g274772-d693568-Reviews-Cyrano_de_Bergerac-Krakow_Lesser_Poland_Province_Southern_Poland.html",
  "Voices": 1585,
  "LatT": 0,
  "LongT": 0,
  "Location": {
    "type": "Point",
    "coordinates": [
      19.93791,
      50.06505
    ]
  }
},{
  "_id": {
    "$oid": "5eb88697cc79a40b40642c23"
  },
  "Kuchnia": [
    "Polska"
  ],
  "Name": "Pierwszy Stopień",
  "Address": "Świętej Katarzyny 2, Kraków 31-063 Polska",
  "Rate": 4.5,
  "Url": "https://pl.tripadvisor.com/Restaurant_Review-g274772-d12922165-Reviews-Pierwszy_Stopien-Krakow_Lesser_Poland_Province_Southern_Poland.html",
  "Voices": 193,
  "LatT": 0,
  "LongT": 0,
  "Location": {
    "type": "Point",
    "coordinates": [
      19.9424,
      50.04997
    ]
  }
},{
  "_id": {
    "$oid": "5eb886a1cc79a40b40642c24"
  },
  "Kuchnia": [
    "Międzynarodowa",
    "Fusion",
    "Zdrowa",
    "Polska"
  ],
  "Name": "Od Jajka Do Jabłka",
  "Address": "ul. Św. Gertrudy 7 Wejście z hotelowego parkingu, Kraków 31-046 Polska",
  "Rate": 4.5,
  "Url": "https://pl.tripadvisor.com/Restaurant_Review-g274772-d7743457-Reviews-Od_Jajka_Do_Jablka-Krakow_Lesser_Poland_Province_Southern_Poland.html",
  "Voices": 352,
  "LatT": 0,
  "LongT": 0,
  "Location": {
    "type": "Point",
    "coordinates": [
      19.9247,
      50.0764
    ]
  }
},{
  "_id": {
    "$oid": "5eb886abcc79a40b40642c25"
  },
  "Kuchnia": [
    "Polska",
    "Międzynarodowa",
    "Europejska"
  ],
  "Name": "Introligatornia Smaku",
  "Address": "ul. Św. Józefa 20, Kraków 31-056 Polska",
  "Rate": 4.5,
  "Url": "https://pl.tripadvisor.com/Restaurant_Review-g274772-d5582351-Reviews-Introligatornia_Smaku-Krakow_Lesser_Poland_Province_Southern_Poland.html",
  "Voices": 2361,
  "LatT": 0,
  "LongT": 0,
  "Location": {
    "type": "Point",
    "coordinates": [
      19.94482,
      50.05074
    ]
  }
},{
  "_id": {
    "$oid": "5eb886b8cc79a40b40642c26"
  },
  "Kuchnia": [
    "Polska",
    "Grill"
  ],
  "Name": "AWIW Restauracja",
  "Address": "Ulica Szeroka 13 Kazimierz, Kraków 31-053 Polska",
  "Rate": 4,
  "Url": "https://pl.tripadvisor.com/Restaurant_Review-g274772-d1231386-Reviews-AWIW_Restaurant-Krakow_Lesser_Poland_Province_Southern_Poland.html",
  "Voices": 715,
  "LatT": 0,
  "LongT": 0,
  "Location": {
    "type": "Point",
    "coordinates": [
      19.94836,
      50.05255
    ]
  }
},{
  "_id": {
    "$oid": "5eb886c2cc79a40b40642c27"
  },
  "Kuchnia": [
    "Polska"
  ],
  "Name": "Baroque",
  "Address": "Św. Jana 16, Kraków 31-018 Polska",
  "Rate": 4.5,
  "Url": "https://pl.tripadvisor.com/Restaurant_Review-g274772-d1815015-Reviews-Baroque-Krakow_Lesser_Poland_Province_Southern_Poland.html",
  "Voices": 471,
  "LatT": 0,
  "LongT": 0,
  "Location": {
    "type": "Point",
    "coordinates": [
      19.9247,
      50.0764
    ]
  }
},{
  "_id": {
    "$oid": "5eb886cccc79a40b40642c28"
  },
  "Kuchnia": [
    "Polska",
    "Wschodnioeuropejska",
    "Środkowoeuropejska"
  ],
  "Name": "Trezo Restauracja",
  "Address": "Miodowa 33, Kraków 31-052 Polska",
  "Rate": 4.5,
  "Url": "https://pl.tripadvisor.com/Restaurant_Review-g274772-d3222026-Reviews-Trezo_Restauracja-Krakow_Lesser_Poland_Province_Southern_Poland.html",
  "Voices": 2748,
  "LatT": 0,
  "LongT": 0,
  "Location": {
    "type": "Point",
    "coordinates": [
      19.94649,
      50.053
    ]
  }
}]